\relax 
\providecommand\hyper@newdestlabel[2]{}
\catcode `"\active 
\providecommand\HyperFirstAtBeginDocument{\AtBeginDocument}
\HyperFirstAtBeginDocument{\ifx\hyper@anchor\@undefined
\global\let\oldcontentsline\contentsline
\gdef\contentsline#1#2#3#4{\oldcontentsline{#1}{#2}{#3}}
\global\let\oldnewlabel\newlabel
\gdef\newlabel#1#2{\newlabelxx{#1}#2}
\gdef\newlabelxx#1#2#3#4#5#6{\oldnewlabel{#1}{{#2}{#3}}}
\AtEndDocument{\ifx\hyper@anchor\@undefined
\let\contentsline\oldcontentsline
\let\newlabel\oldnewlabel
\fi}
\fi}
\global\let\hyper@last\relax 
\gdef\HyperFirstAtBeginDocument#1{#1}
\providecommand\HyField@AuxAddToFields[1]{}
\providecommand\HyField@AuxAddToCoFields[2]{}
\select@language{ngerman}
\@writefile{toc}{\select@language{ngerman}}
\@writefile{lof}{\select@language{ngerman}}
\@writefile{lot}{\select@language{ngerman}}
\@writefile{toc}{\contentsline {section}{\numberline {1}Einf\IeC {\"u}hrung}{3}{section.1}}
\@writefile{toc}{\contentsline {section}{\numberline {2}Grundlagen}{4}{section.2}}
\@writefile{toc}{\contentsline {subsection}{\numberline {2.1}Logik}{4}{subsection.2.1}}
\@writefile{toc}{\contentsline {subsubsection}{\numberline {2.1.1}Propositional Logic}{5}{subsubsection.2.1.1}}
\@writefile{toc}{\contentsline {subsubsection}{\numberline {2.1.2}First-order predicate logic (PL1)}{5}{subsubsection.2.1.2}}
\@writefile{toc}{\contentsline {subsubsection}{\numberline {2.1.3}Horn Logic}{5}{subsubsection.2.1.3}}
\@writefile{toc}{\contentsline {subsubsection}{\numberline {2.1.4}Sonstige Logik}{6}{subsubsection.2.1.4}}
\@writefile{toc}{\contentsline {section}{\numberline {3}Prolog}{7}{section.3}}
\@writefile{toc}{\contentsline {subsection}{\numberline {3.1}Ein einfaches Beispiel}{7}{subsection.3.1}}
\@writefile{toc}{\contentsline {subsection}{\numberline {3.2}Ein schwieriges Beispiel: Schubert's Steamroller}{10}{subsection.3.2}}
\@writefile{toc}{\contentsline {subsection}{\numberline {3.3}Einf\IeC {\"u}hrung}{12}{subsection.3.3}}
\@writefile{toc}{\contentsline {subsection}{\numberline {3.4}Syntax}{13}{subsection.3.4}}
\@writefile{toc}{\contentsline {subsubsection}{\numberline {3.4.1}Atoms}{13}{subsubsection.3.4.1}}
\@writefile{toc}{\contentsline {subsubsection}{\numberline {3.4.2}Numbers}{13}{subsubsection.3.4.2}}
\@writefile{toc}{\contentsline {subsubsection}{\numberline {3.4.3}Constants}{14}{subsubsection.3.4.3}}
\@writefile{toc}{\contentsline {subsubsection}{\numberline {3.4.4}Variables}{14}{subsubsection.3.4.4}}
\@writefile{toc}{\contentsline {subsubsection}{\numberline {3.4.5}Complex Terms}{14}{subsubsection.3.4.5}}
\@writefile{toc}{\contentsline {subsubsection}{\numberline {3.4.6}Arity}{14}{subsubsection.3.4.6}}
\@writefile{toc}{\contentsline {subsection}{\numberline {3.5}Unification}{15}{subsection.3.5}}
\@writefile{toc}{\contentsline {subsubsection}{\numberline {3.5.1}Defintion}{15}{subsubsection.3.5.1}}
\@writefile{toc}{\contentsline {subsubsection}{\numberline {3.5.2}Beipiele}{16}{subsubsection.3.5.2}}
\@writefile{toc}{\contentsline {subsubsection}{\numberline {3.5.3}Occurs Check}{17}{subsubsection.3.5.3}}
\@writefile{toc}{\contentsline {subsubsection}{\numberline {3.5.4}Programming with Unification}{18}{subsubsection.3.5.4}}
\@writefile{toc}{\contentsline {subsection}{\numberline {3.6}Lists}{19}{subsection.3.6}}
\@writefile{toc}{\contentsline {subsection}{\numberline {3.7}Proof Strategies}{20}{subsection.3.7}}
\@writefile{toc}{\contentsline {subsubsection}{\numberline {3.7.1}Proof Search}{20}{subsubsection.3.7.1}}
\@writefile{toc}{\contentsline {subsubsection}{\numberline {3.7.2}Proof by Refutation}{21}{subsubsection.3.7.2}}
\@writefile{toc}{\contentsline {subsubsection}{\numberline {3.7.3}Substitutions}{23}{subsubsection.3.7.3}}
\@writefile{toc}{\contentsline {subsubsection}{\numberline {3.7.4}Prolog Prove Loop (SLD-Resolution)}{25}{subsubsection.3.7.4}}
\@writefile{toc}{\contentsline {subsubsection}{\numberline {3.7.5}Proof by Induction}{26}{subsubsection.3.7.5}}
\@writefile{toc}{\contentsline {subsection}{\numberline {3.8}Natural Language to Prolog Program Translation}{26}{subsection.3.8}}
\@writefile{toc}{\contentsline {subsubsection}{\numberline {3.8.1}Normal Form}{27}{subsubsection.3.8.1}}
\@writefile{toc}{\contentsline {subsubsection}{\numberline {3.8.2}Prenex Form}{27}{subsubsection.3.8.2}}
\@writefile{toc}{\contentsline {subsubsection}{\numberline {3.8.3}Skolemization}{27}{subsubsection.3.8.3}}
\@writefile{toc}{\contentsline {subsubsection}{\numberline {3.8.4}Conjunctive Normal Form}{28}{subsubsection.3.8.4}}
\@writefile{toc}{\contentsline {subsection}{\numberline {3.9}Grammar}{28}{subsection.3.9}}
\@writefile{toc}{\contentsline {subsubsection}{\numberline {3.9.1}Implementierung}{29}{subsubsection.3.9.1}}
\@writefile{toc}{\contentsline {subsection}{\numberline {3.10}Patterns}{29}{subsection.3.10}}
\@writefile{toc}{\contentsline {subsection}{\numberline {3.11}H\IeC {\"a}ufige Probleme in der Programmierung mit Prolog}{29}{subsection.3.11}}
\@writefile{toc}{\contentsline {subsubsection}{\numberline {3.11.1}Syntax Error: Operation expected}{29}{subsubsection.3.11.1}}
\@writefile{toc}{\contentsline {subsubsection}{\numberline {3.11.2}Undefined procedire: <Predicate name> / <arity>}{30}{subsubsection.3.11.2}}
